{"q1":[
    "tree",
    "children",
    "leaves",
    "parent",
    "recursive",
    "root",
    "subtree"
  ],
  "q2":[

    "bst_sort",
    "heap_sort",
    "heap_value",
    "heap_balance"
    ],
  "q3": [
    "8",
    "3",
    "1",
    "6",
    "4",
    "7",
    "10",
    "14",
    "13"
  ],
  "q4": [
    "1",
    "3",
    "4",
    "6",
    "7",
    "8",
    "10",
    "13",
    "14"
  ],
  "q5": [
    "1",
    "4",
    "7",
    "6",
    "3",
    "13",
    "14",
    "10",
    "8"
  ]
}
